%YAML 1.1
%TAG !u! tag:unity3d.com,2011:
--- !u!1045 &1
EditorBuildSettings:
  m_ObjectHideFlags: 0
  serializedVersion: 2
  m_Scenes:
  - enabled: 1
    path: Assets/Custom Assets/Scenes/LoaderScene.unity
    guid: 3f2632b5d48f02741bb4b4968ee4ef40
  m_configObjects:
    UnityEditor.XR.ARCore.ARCoreSettings: {fileID: 11400000, guid: 0b33feda219a0a947815329fdab6a3db,
      type: 2}
    com.unity.xr.management.loader_settings: {fileID: 11400000, guid: 5e0f66ce639b993428b14d81b9852328,
      type: 2}
